<?xml version="1.0" encoding="UTF-8" standalone="no"?>
<!-- Created with Inkscape (http://www.inkscape.org/) -->

<svg
   xmlns:dc="http://purl.org/dc/elements/1.1/"
   xmlns:cc="http://creativecommons.org/ns#"
   xmlns:rdf="http://www.w3.org/1999/02/22-rdf-syntax-ns#"
   xmlns:svg="http://www.w3.org/2000/svg"
   xmlns="http://www.w3.org/2000/svg"
   xmlns:xlink="http://www.w3.org/1999/xlink"
   xmlns:sodipodi="http://sodipodi.sourceforge.net/DTD/sodipodi-0.dtd"
   xmlns:inkscape="http://www.inkscape.org/namespaces/inkscape"
   width="128"
   height="128"
   id="svg2"
   version="1.1"
   inkscape:version="0.48.0 r9654"
   sodipodi:docname="eo.svg">
  <defs
     id="defs4">
    <linearGradient
       id="linearGradient3851">
      <stop
         id="stop3853"
         offset="0"
         style="stop-color:#f4f4f4;stop-opacity:0" />
      <stop
         style="stop-color:#f0f0f0;stop-opacity:1;"
         offset="0.1762425"
         id="stop3855" />
      <stop
         style="stop-color:#ededed;stop-opacity:1"
         offset="0.8014437"
         id="stop3857" />
      <stop
         id="stop3859"
         offset="1"
         style="stop-color:#e6e6e6;stop-opacity:0;" />
    </linearGradient>
    <linearGradient
       id="linearGradient3835">
      <stop
         style="stop-color:#f4f4f4;stop-opacity:1"
         offset="0"
         id="stop3837" />
      <stop
         id="stop3849"
         offset="0.40072185"
         style="stop-color:#f0f0f0;stop-opacity:1;" />
      <stop
         id="stop3843"
         offset="0.8014437"
         style="stop-color:#ededed;stop-opacity:1" />
      <stop
         style="stop-color:#e6e6e6;stop-opacity:0;"
         offset="1"
         id="stop3839" />
    </linearGradient>
    <linearGradient
       id="linearGradient3793">
      <stop
         id="stop3795"
         offset="0"
         style="stop-color:#b5b5b5;stop-opacity:1" />
      <stop
         id="stop3797"
         offset="1"
         style="stop-color:#f5f5f5;stop-opacity:1" />
    </linearGradient>
    <linearGradient
       id="linearGradient3765">
      <stop
         style="stop-color:#cecece;stop-opacity:1"
         offset="0"
         id="stop3767" />
      <stop
         style="stop-color:#ffffff;stop-opacity:1"
         offset="1"
         id="stop3769" />
    </linearGradient>
    <linearGradient
       id="linearGradient3861">
      <stop
         id="stop3863"
         offset="0"
         style="stop-color:#6c6c6c;stop-opacity:1;" />
      <stop
         id="stop3865"
         offset="1"
         style="stop-color:#393939;stop-opacity:1;" />
    </linearGradient>
    <linearGradient
       id="linearGradient3755">
      <stop
         style="stop-color:#2b2b2b;stop-opacity:1;"
         offset="0"
         id="stop3757" />
      <stop
         style="stop-color:#0a0a0a;stop-opacity:1"
         offset="1"
         id="stop3759" />
    </linearGradient>
    <linearGradient
       inkscape:collect="always"
       xlink:href="#linearGradient3755"
       id="linearGradient3796"
       gradientUnits="userSpaceOnUse"
       x1="11.514"
       y1="21.114983"
       x2="11.649764"
       y2="2.2996519" />
    <linearGradient
       inkscape:collect="always"
       xlink:href="#linearGradient3861"
       id="linearGradient3859"
       gradientUnits="userSpaceOnUse"
       x1="11.514"
       y1="21.114983"
       x2="11.649764"
       y2="2.2996519"
       gradientTransform="matrix(1.3125413,0,0,1,-2.0759864,0.5017)" />
    <linearGradient
       inkscape:collect="always"
       xlink:href="#linearGradient3861"
       id="linearGradient3875"
       gradientUnits="userSpaceOnUse"
       gradientTransform="matrix(1.3125413,0,0,1,-2.0759864,1028.6865)"
       x1="11.514"
       y1="21.114983"
       x2="11.649764"
       y2="2.2996519" />
    <linearGradient
       inkscape:collect="always"
       xlink:href="#linearGradient3861"
       id="linearGradient3881"
       gradientUnits="userSpaceOnUse"
       gradientTransform="matrix(1.3125413,0,0,1,-2.0759864,1028.6865)"
       x1="11.514"
       y1="21.114983"
       x2="11.649764"
       y2="2.2996519" />
    <linearGradient
       inkscape:collect="always"
       xlink:href="#linearGradient3765"
       id="linearGradient3884"
       gradientUnits="userSpaceOnUse"
       gradientTransform="matrix(7.5004537,0,0,5.7144516,-21.65874,922.31362)"
       x1="11.514"
       y1="21.114983"
       x2="11.649764"
       y2="2.2996519" />
    <linearGradient
       inkscape:collect="always"
       xlink:href="#linearGradient3793"
       id="linearGradient3785"
       gradientUnits="userSpaceOnUse"
       gradientTransform="matrix(7.5004537,0,0,4.3068813,-21.65874,15.30288)"
       x1="11.514"
       y1="21.114983"
       x2="11.649764"
       y2="2.2996519" />
    <linearGradient
       inkscape:collect="always"
       xlink:href="#linearGradient3793-8"
       id="linearGradient3785-3"
       gradientUnits="userSpaceOnUse"
       gradientTransform="matrix(7.5004537,0,0,4.3068813,-21.65874,15.30288)"
       x1="11.514"
       y1="21.114983"
       x2="11.649764"
       y2="2.2996519" />
    <linearGradient
       id="linearGradient3793-8">
      <stop
         id="stop3795-0"
         offset="0"
         style="stop-color:#b5b5b5;stop-opacity:1" />
      <stop
         id="stop3797-5"
         offset="1"
         style="stop-color:#f5f5f5;stop-opacity:1" />
    </linearGradient>
  </defs>
  <sodipodi:namedview
     id="base"
     pagecolor="#ffffff"
     bordercolor="#666666"
     borderopacity="1.0"
     inkscape:pageopacity="0.0"
     inkscape:pageshadow="2"
     inkscape:zoom="4.2279092"
     inkscape:cx="60.626714"
     inkscape:cy="64.388996"
     inkscape:document-units="px"
     inkscape:current-layer="layer1"
     showgrid="false"
     inkscape:window-width="1224"
     inkscape:window-height="776"
     inkscape:window-x="56"
     inkscape:window-y="24"
     inkscape:window-maximized="1" />
  <metadata
     id="metadata7">
    <rdf:RDF>
      <cc:Work
         rdf:about="">
        <dc:format>image/svg+xml</dc:format>
        <dc:type
           rdf:resource="http://purl.org/dc/dcmitype/StillImage" />
        <dc:title></dc:title>
      </cc:Work>
    </rdf:RDF>
  </metadata>
  <g
     inkscape:label="Layer 1"
     inkscape:groupmode="layer"
     id="layer1"
     transform="translate(0,-924.3622)">
    <path
       style="fill:url(#linearGradient3785);fill-opacity:1;stroke:#262626;stroke-width:0;stroke-linecap:round;stroke-linejoin:miter;stroke-miterlimit:4;stroke-opacity:1;stroke-dasharray:none"
       d="M 9.09375 27.15625 C 5.587878 27.15625 2.84375 28.76778 2.84375 30.78125 L 2.84375 100.21875 C 2.84375 102.23165 5.587878 103.84375 9.09375 103.84375 L 119.75 103.84375 C 123.25587 103.84375 126.1875 102.23165 126.1875 100.21875 L 126.1875 30.78125 C 126.1875 28.76778 123.25587 27.15625 119.75 27.15625 L 9.09375 27.15625 z M 84.5625 39.5 C 87.586477 39.50005 90.301974 39.82805 92.75 40.5 C 95.245969 41.12405 97.066717 41.8258 98.21875 42.59375 L 96 48.28125 C 94.991969 47.6573 93.484721 47.0448 91.46875 46.46875 C 89.500725 45.8448 87.202477 45.5313 84.5625 45.53125 C 83.218481 45.5313 81.964482 45.6808 80.8125 45.96875 C 79.660484 46.2568 78.645235 46.67405 77.78125 47.25 C 76.917237 47.82605 76.215488 48.58805 75.6875 49.5 C 75.207489 50.36404 74.968739 51.39379 74.96875 52.59375 C 74.968739 53.93779 75.253239 55.05679 75.78125 55.96875 C 76.309238 56.88079 77.039987 57.71754 78 58.4375 C 78.959985 59.10954 80.064484 59.70528 81.3125 60.28125 C 82.608481 60.85728 84.02648 61.45528 85.5625 62.03125 C 87.722476 62.89528 89.692724 63.76103 91.46875 64.625 C 93.292721 65.48903 94.860219 66.51878 96.15625 67.71875 C 97.500217 68.91878 98.529966 70.35127 99.25 72.03125 C 99.969964 73.66327 100.31247 75.648 100.3125 78 C 100.31247 82.368 98.715965 85.74175 95.5 88.09375 C 92.331972 90.44575 87.839226 91.625 82.03125 91.625 C 80.063234 91.625 78.242486 91.4755 76.5625 91.1875 C 74.930489 90.9475 73.452241 90.6485 72.15625 90.3125 C 70.860243 89.9285 69.741244 89.54025 68.78125 89.15625 C 67.869246 88.72425 67.152997 88.38175 66.625 88.09375 L 68.71875 82.34375 C 69.822744 82.96775 71.493993 83.63825 73.75 84.40625 C 76.005988 85.17425 78.767235 85.5625 82.03125 85.5625 C 89.327225 85.5625 92.968721 83.08575 92.96875 78.09375 C 92.968721 76.55775 92.640721 75.24352 91.96875 74.1875 C 91.344723 73.08352 90.478974 72.14302 89.375 71.375 C 88.270976 70.55902 87.002477 69.85727 85.5625 69.28125 C 84.17048 68.70528 82.677731 68.13853 81.09375 67.5625 C 79.269735 66.93853 77.538237 66.23678 75.90625 65.46875 C 74.27424 64.65278 72.856241 63.74353 71.65625 62.6875 C 70.456244 61.58353 69.501245 60.26928 68.78125 58.78125 C 68.109246 57.29329 67.781246 55.48704 67.78125 53.375 C 67.781246 49.00705 69.273995 45.6043 72.25 43.15625 C 75.225989 40.7083 79.330485 39.50005 84.5625 39.5 z M 29.09375 40.625 L 59.5625 40.625 L 59.5625 46.625 L 36.09375 46.625 L 36.09375 61.4375 L 56.96875 61.4375 L 56.96875 67.28125 L 36.09375 67.28125 L 36.09375 84.5625 L 61.34375 84.5625 L 61.34375 90.53125 L 29.09375 90.53125 L 29.09375 40.625 z "
       transform="translate(0,924.3622)"
       id="rect3753" />
    <g
       style="font-size:40px;font-style:normal;font-weight:normal;line-height:125%;letter-spacing:0px;word-spacing:0px;fill:#000000;fill-opacity:1;stroke:none;font-family:Bitstream Vera Sans"
       id="text3763" />
    <g
       style="font-size:12px;font-style:normal;font-variant:normal;font-weight:normal;font-stretch:normal;line-height:125%;letter-spacing:0px;word-spacing:0px;fill:#000000;fill-opacity:1;stroke:none;font-family:Yanone Kaffeesatz;-inkscape-font-specification:Yanone Kaffeesatz"
       id="text3855" />
    <g
       style="font-size:48px;font-style:normal;font-variant:normal;font-weight:normal;font-stretch:normal;line-height:125%;letter-spacing:0px;word-spacing:0px;fill:#000000;fill-opacity:1;stroke:none;font-family:Ubuntu;-inkscape-font-specification:Ubuntu"
       id="text3771" />
    <g
       style="font-size:48px;font-style:normal;font-variant:normal;font-weight:normal;font-stretch:normal;line-height:125%;letter-spacing:0px;word-spacing:0px;fill:#000000;fill-opacity:1;stroke:none;font-family:Ubuntu;-inkscape-font-specification:Ubuntu"
       id="text3001" />
    <g
       style="font-size:48px;font-style:normal;font-variant:normal;font-weight:normal;font-stretch:normal;line-height:125%;letter-spacing:0px;word-spacing:0px;fill:#000000;fill-opacity:1;stroke:none;font-family:Ubuntu;-inkscape-font-specification:Ubuntu"
       id="text3861" />
  </g>
</svg>
