<?xml version="1.0" encoding="UTF-8" standalone="no"?>
<!-- Created with Inkscape (http://www.inkscape.org/) -->

<svg
   xmlns:dc="http://purl.org/dc/elements/1.1/"
   xmlns:cc="http://creativecommons.org/ns#"
   xmlns:rdf="http://www.w3.org/1999/02/22-rdf-syntax-ns#"
   xmlns:svg="http://www.w3.org/2000/svg"
   xmlns="http://www.w3.org/2000/svg"
   xmlns:xlink="http://www.w3.org/1999/xlink"
   xmlns:sodipodi="http://sodipodi.sourceforge.net/DTD/sodipodi-0.dtd"
   xmlns:inkscape="http://www.inkscape.org/namespaces/inkscape"
   width="128"
   height="128"
   id="svg2"
   version="1.1"
   inkscape:version="0.48.0 r9654"
   sodipodi:docname="pt.svg">
  <defs
     id="defs4">
    <linearGradient
       id="linearGradient3851">
      <stop
         id="stop3853"
         offset="0"
         style="stop-color:#f4f4f4;stop-opacity:0" />
      <stop
         style="stop-color:#f0f0f0;stop-opacity:1;"
         offset="0.1762425"
         id="stop3855" />
      <stop
         style="stop-color:#ededed;stop-opacity:1"
         offset="0.8014437"
         id="stop3857" />
      <stop
         id="stop3859"
         offset="1"
         style="stop-color:#e6e6e6;stop-opacity:0;" />
    </linearGradient>
    <linearGradient
       id="linearGradient3835">
      <stop
         style="stop-color:#f4f4f4;stop-opacity:1"
         offset="0"
         id="stop3837" />
      <stop
         id="stop3849"
         offset="0.40072185"
         style="stop-color:#f0f0f0;stop-opacity:1;" />
      <stop
         id="stop3843"
         offset="0.8014437"
         style="stop-color:#ededed;stop-opacity:1" />
      <stop
         style="stop-color:#e6e6e6;stop-opacity:0;"
         offset="1"
         id="stop3839" />
    </linearGradient>
    <linearGradient
       id="linearGradient3793">
      <stop
         id="stop3795"
         offset="0"
         style="stop-color:#b5b5b5;stop-opacity:1" />
      <stop
         id="stop3797"
         offset="1"
         style="stop-color:#f5f5f5;stop-opacity:1" />
    </linearGradient>
    <linearGradient
       id="linearGradient3765">
      <stop
         style="stop-color:#cecece;stop-opacity:1"
         offset="0"
         id="stop3767" />
      <stop
         style="stop-color:#ffffff;stop-opacity:1"
         offset="1"
         id="stop3769" />
    </linearGradient>
    <linearGradient
       id="linearGradient3861">
      <stop
         id="stop3863"
         offset="0"
         style="stop-color:#6c6c6c;stop-opacity:1;" />
      <stop
         id="stop3865"
         offset="1"
         style="stop-color:#393939;stop-opacity:1;" />
    </linearGradient>
    <linearGradient
       id="linearGradient3755">
      <stop
         style="stop-color:#2b2b2b;stop-opacity:1;"
         offset="0"
         id="stop3757" />
      <stop
         style="stop-color:#0a0a0a;stop-opacity:1"
         offset="1"
         id="stop3759" />
    </linearGradient>
    <linearGradient
       inkscape:collect="always"
       xlink:href="#linearGradient3755"
       id="linearGradient3796"
       gradientUnits="userSpaceOnUse"
       x1="11.514"
       y1="21.114983"
       x2="11.649764"
       y2="2.2996519" />
    <linearGradient
       inkscape:collect="always"
       xlink:href="#linearGradient3861"
       id="linearGradient3859"
       gradientUnits="userSpaceOnUse"
       x1="11.514"
       y1="21.114983"
       x2="11.649764"
       y2="2.2996519"
       gradientTransform="matrix(1.3125413,0,0,1,-2.0759864,0.5017)" />
    <linearGradient
       inkscape:collect="always"
       xlink:href="#linearGradient3861"
       id="linearGradient3875"
       gradientUnits="userSpaceOnUse"
       gradientTransform="matrix(1.3125413,0,0,1,-2.0759864,1028.6865)"
       x1="11.514"
       y1="21.114983"
       x2="11.649764"
       y2="2.2996519" />
    <linearGradient
       inkscape:collect="always"
       xlink:href="#linearGradient3861"
       id="linearGradient3881"
       gradientUnits="userSpaceOnUse"
       gradientTransform="matrix(1.3125413,0,0,1,-2.0759864,1028.6865)"
       x1="11.514"
       y1="21.114983"
       x2="11.649764"
       y2="2.2996519" />
    <linearGradient
       inkscape:collect="always"
       xlink:href="#linearGradient3765"
       id="linearGradient3884"
       gradientUnits="userSpaceOnUse"
       gradientTransform="matrix(7.5004537,0,0,5.7144516,-21.65874,922.31362)"
       x1="11.514"
       y1="21.114983"
       x2="11.649764"
       y2="2.2996519" />
    <linearGradient
       inkscape:collect="always"
       xlink:href="#linearGradient3793"
       id="linearGradient3785"
       gradientUnits="userSpaceOnUse"
       gradientTransform="matrix(7.5004537,0,0,4.3068813,-21.65874,15.30288)"
       x1="11.514"
       y1="21.114983"
       x2="11.649764"
       y2="2.2996519" />
    <linearGradient
       inkscape:collect="always"
       xlink:href="#linearGradient3793-8"
       id="linearGradient3785-3"
       gradientUnits="userSpaceOnUse"
       gradientTransform="matrix(7.5004537,0,0,4.3068813,-21.65874,15.30288)"
       x1="11.514"
       y1="21.114983"
       x2="11.649764"
       y2="2.2996519" />
    <linearGradient
       id="linearGradient3793-8">
      <stop
         id="stop3795-0"
         offset="0"
         style="stop-color:#b5b5b5;stop-opacity:1" />
      <stop
         id="stop3797-5"
         offset="1"
         style="stop-color:#f5f5f5;stop-opacity:1" />
    </linearGradient>
  </defs>
  <sodipodi:namedview
     id="base"
     pagecolor="#ffffff"
     bordercolor="#666666"
     borderopacity="1.0"
     inkscape:pageopacity="0.0"
     inkscape:pageshadow="2"
     inkscape:zoom="4.2279092"
     inkscape:cx="60.626714"
     inkscape:cy="64.388996"
     inkscape:document-units="px"
     inkscape:current-layer="layer1"
     showgrid="false"
     inkscape:window-width="1224"
     inkscape:window-height="776"
     inkscape:window-x="56"
     inkscape:window-y="24"
     inkscape:window-maximized="1" />
  <metadata
     id="metadata7">
    <rdf:RDF>
      <cc:Work
         rdf:about="">
        <dc:format>image/svg+xml</dc:format>
        <dc:type
           rdf:resource="http://purl.org/dc/dcmitype/StillImage" />
        <dc:title></dc:title>
      </cc:Work>
    </rdf:RDF>
  </metadata>
  <g
     inkscape:label="Layer 1"
     inkscape:groupmode="layer"
     id="layer1"
     transform="translate(0,-924.3622)">
    <path
       style="fill:url(#linearGradient3785);fill-opacity:1;stroke:#262626;stroke-width:0;stroke-linecap:round;stroke-linejoin:miter;stroke-miterlimit:4;stroke-opacity:1;stroke-dasharray:none"
       d="M 9.09375 27.15625 C 5.587878 27.15625 2.84375 28.76778 2.84375 30.78125 L 2.84375 100.21875 C 2.84375 102.23165 5.587878 103.84375 9.09375 103.84375 L 119.75 103.84375 C 123.25587 103.84375 126.1875 102.23165 126.1875 100.21875 L 126.1875 30.78125 C 126.1875 28.76778 123.25587 27.15625 119.75 27.15625 L 9.09375 27.15625 z M 86.03125 39.5 C 86.434002 39.482745 86.841997 39.500006 87.25 39.5 C 90.465968 39.50005 93.511715 40.0523 96.34375 41.15625 C 99.22371 42.2603 101.74621 43.91705 103.90625 46.125 C 106.06621 48.28505 107.75195 50.98604 109 54.25 C 110.29595 57.51404 110.93745 61.29053 110.9375 65.5625 C 110.93745 69.83452 110.29595 73.57977 109 76.84375 C 107.75195 80.10775 106.06621 82.8545 103.90625 85.0625 C 101.74621 87.2225 99.22371 88.86475 96.34375 89.96875 C 93.511715 91.07275 90.465968 91.625 87.25 91.625 C 83.985975 91.625 80.896728 91.07275 77.96875 89.96875 C 75.088734 88.86475 72.551736 87.2225 70.34375 85.0625 C 68.183741 82.8545 66.452242 80.10775 65.15625 76.84375 C 63.908245 73.57977 63.281246 69.83452 63.28125 65.5625 C 63.281246 61.29053 63.908245 57.51404 65.15625 54.25 C 66.452242 50.98604 68.183741 48.28505 70.34375 46.125 C 72.551736 43.91705 75.088734 42.2603 77.96875 41.15625 C 80.530731 40.190294 83.211984 39.620783 86.03125 39.5 z M 33.84375 40.125 C 40.851723 40.12505 46.164468 41.4538 49.8125 44.09375 C 53.508461 46.7338 55.374959 50.67429 55.375 55.90625 C 55.374959 59.21829 54.46346 62.05428 52.6875 64.40625 C 50.959463 66.75828 48.407966 68.50428 45 69.65625 C 45.767968 70.61627 46.722967 71.88477 47.875 73.46875 C 49.074965 75.00477 50.283214 76.73625 51.53125 78.65625 C 52.779211 80.52825 54.01871 82.4985 55.21875 84.5625 C 56.466708 86.6265 57.510957 88.61125 58.375 90.53125 L 50.75 90.53125 C 49.789964 88.70725 48.745715 86.872 47.59375 85 C 46.489718 83.128 45.339469 81.33625 44.1875 79.65625 C 43.035471 77.92825 41.901972 76.33175 40.75 74.84375 C 39.645975 73.35577 38.630726 72.04152 37.71875 70.9375 C 37.094727 70.9855 36.453228 71.03125 35.78125 71.03125 C 35.157229 71.03127 34.51573 71.03127 33.84375 71.03125 L 27.5625 71.03125 L 27.5625 90.53125 L 20.59375 90.53125 L 20.59375 41.375 C 22.561742 40.89505 24.724989 40.58155 27.125 40.4375 C 29.572985 40.24555 31.827732 40.12505 33.84375 40.125 z M 87.125 45.59375 C 84.580974 45.5938 82.282727 46.10255 80.21875 47.0625 C 78.202731 47.97455 76.471232 49.27204 75.03125 51 C 73.639235 52.72804 72.549236 54.84779 71.78125 57.34375 C 71.013238 59.79178 70.624988 62.53853 70.625 65.5625 C 70.624988 68.58653 71.013238 71.34777 71.78125 73.84375 C 72.549236 76.29175 73.639235 78.36575 75.03125 80.09375 C 76.471232 81.82175 78.202731 83.165 80.21875 84.125 C 82.282727 85.037 84.580974 85.5 87.125 85.5 C 89.668969 85.5 91.952717 85.037 93.96875 84.125 C 95.984713 83.165 97.670461 81.82175 99.0625 80.09375 C 100.50246 78.36575 101.60696 76.29175 102.375 73.84375 C 103.14296 71.34777 103.53121 68.58653 103.53125 65.5625 C 103.53121 62.53853 103.14296 59.79178 102.375 57.34375 C 101.60696 54.84779 100.50246 52.72804 99.0625 51 C 97.670461 49.27204 95.984713 47.97455 93.96875 47.0625 C 91.952717 46.10255 89.668969 45.5938 87.125 45.59375 z M 34.40625 46.25 C 31.430233 46.25005 29.146485 46.32475 27.5625 46.46875 L 27.5625 65.25 L 32.53125 65.25 C 34.931229 65.25003 37.079977 65.14628 39 64.90625 C 40.919973 64.66628 42.547722 64.20328 43.84375 63.53125 C 45.187719 62.85928 46.217468 61.91878 46.9375 60.71875 C 47.657467 59.47078 47.999966 57.85979 48 55.84375 C 47.999966 53.97179 47.657467 52.40429 46.9375 51.15625 C 46.217468 49.90829 45.216719 48.90755 43.96875 48.1875 C 42.768721 47.46755 41.336223 46.97555 39.65625 46.6875 C 38.024226 46.39955 36.278228 46.25005 34.40625 46.25 z "
       transform="translate(0,924.3622)"
       id="rect3753" />
    <g
       style="font-size:40px;font-style:normal;font-weight:normal;line-height:125%;letter-spacing:0px;word-spacing:0px;fill:#000000;fill-opacity:1;stroke:none;font-family:Bitstream Vera Sans"
       id="text3763" />
    <g
       style="font-size:12px;font-style:normal;font-variant:normal;font-weight:normal;font-stretch:normal;line-height:125%;letter-spacing:0px;word-spacing:0px;fill:#000000;fill-opacity:1;stroke:none;font-family:Yanone Kaffeesatz;-inkscape-font-specification:Yanone Kaffeesatz"
       id="text3855" />
    <g
       style="font-size:48px;font-style:normal;font-variant:normal;font-weight:normal;font-stretch:normal;line-height:125%;letter-spacing:0px;word-spacing:0px;fill:#000000;fill-opacity:1;stroke:none;font-family:Ubuntu;-inkscape-font-specification:Ubuntu"
       id="text3771" />
    <g
       style="font-size:48px;font-style:normal;font-variant:normal;font-weight:normal;font-stretch:normal;line-height:125%;letter-spacing:0px;word-spacing:0px;fill:#000000;fill-opacity:1;stroke:none;font-family:Ubuntu;-inkscape-font-specification:Ubuntu"
       id="text3001" />
    <g
       style="font-size:48px;font-style:normal;font-variant:normal;font-weight:normal;font-stretch:normal;line-height:125%;letter-spacing:0px;word-spacing:0px;fill:#000000;fill-opacity:1;stroke:none;font-family:Ubuntu;-inkscape-font-specification:Ubuntu"
       id="text3861" />
  </g>
</svg>
